…
## ── Conflicts ───────────────────────────────────────────────────────── tidyverse_conflicts() ──
## ✖ dplyr::filter() masks stats::filter()
## ✖ dplyr::lag()    masks stats::lag()

gapm <- gapminder
gapm_gdpextrema <- gapm %>% 
  group_by(continent, year) %>%
  filter(gdpPercap == max(gdpPercap) | gdpPercap == min(gdpPercap)) %>%
  mutate(extrema = factor(case_when(gdpPercap == max(gdpPercap) ~ 'max',
                   gdpPercap == min(gdpPercap) ~ 'min'))) %>%
  arrange(continent, country,  year, gdpPercap)
gapm_gdpextrema

# A tibble: 120 x 7
# Groups:   continent, year [60]
   country          continent  year lifeExp      pop gdpPercap extrema
   <fct>            <fct>     <int>   <dbl>    <int>     <dbl> <fct>  
 1 Burundi          Africa     1962    42.0  2961915      355. min    
 2 Burundi          Africa     1967    43.5  3330989      413. min    
 3 Burundi          Africa     1972    44.1  3529983      464. min    
 4 Congo, Dem. Rep. Africa     1997    42.6 47798986      312. min    
 5 Congo, Dem. Rep. Africa     2002    45.0 55379852      241. min    
 6 Congo, Dem. Rep. Africa     2007    46.5 64606759      278. min    
 7 Gabon            Africa     1987    60.2   880397    11864. max    
 8 Gabon            Africa     1992    61.4   985739    13522. max    
 9 Gabon            Africa     1997    60.5  1126189    14723. max    
10 Gabon            Africa     2002    56.8  1299304    12522. max    
# ... with 110 more rows
…
